%YAML 1.1
%TAG !u! tag:unity3d.com,2011:
--- !u!114 &11470138
MonoBehaviour:
  m_ObjectHideFlags: 1
  m_PrefabParentObject: {fileID: 0}
  m_PrefabInternal: {fileID: 100100000}
  m_GameObject: {fileID: 1000011709798290}
  m_Enabled: 1
  m_EditorHideFlags: 0
  m_Script: {fileID: 11500000, guid: 58bf49b92f0c8480080210495e8318f2, type: 3}
  m_Name: 
  m_EditorClassIdentifier: 
  m_eTerrain: 0
  m_displaySprite: {fileID: 21300000, guid: 268efd54933d7404cafda6bf455b824b, type: 3}
  m_eGridSize: 6
  m_effects:
  - m_eEffect: 0
    m_value: 1
  - m_eEffect: 1
    m_value: 1
  - m_eEffect: 6
    m_value: 5
  - m_eEffect: 2
    m_value: -40
  m_displayName: School
  m_info: "\u201CEveryone should have access to education. Unlocks new Buildings\u201D"
  m_requires: 'Requires: Population 200'
  m_displayColor: {r: 0.9852941, g: 0.7678499, b: 0.057958473, a: 0}
  m_unlockedBy: 200
--- !u!1001 &100100000
Prefab:
  m_ObjectHideFlags: 1
  serializedVersion: 2
  m_Modification:
    m_TransformParent: {fileID: 0}
    m_Modifications: []
    m_RemovedComponents: []
  m_ParentPrefab: {fileID: 0}
  m_RootGameObject: {fileID: 1000011709798290}
  m_IsPrefabParent: 1
--- !u!1 &1000011709798290
GameObject:
  m_ObjectHideFlags: 0
  m_PrefabParentObject: {fileID: 0}
  m_PrefabInternal: {fileID: 100100000}
  serializedVersion: 5
  m_Component:
  - component: {fileID: 4000010934732984}
  - component: {fileID: 11470138}
  m_Layer: 0
  m_Name: School
  m_TagString: Untagged
  m_Icon: {fileID: 0}
  m_NavMeshLayer: 0
  m_StaticEditorFlags: 0
  m_IsActive: 1
--- !u!4 &4000010934732984
Transform:
  m_ObjectHideFlags: 1
  m_PrefabParentObject: {fileID: 0}
  m_PrefabInternal: {fileID: 100100000}
  m_GameObject: {fileID: 1000011709798290}
  m_LocalRotation: {x: 0, y: 0, z: 0, w: 1}
  m_LocalPosition: {x: 0, y: 0, z: 0}
  m_LocalScale: {x: 1, y: 1, z: 1}
  m_Children: []
  m_Father: {fileID: 0}
  m_RootOrder: 0
  m_LocalEulerAnglesHint: {x: 0, y: 0, z: 0}
