%YAML 1.1
%TAG !u! tag:unity3d.com,2011:
--- !u!1001 &100100000
Prefab:
  m_ObjectHideFlags: 1
  serializedVersion: 2
  m_Modification:
    m_TransformParent: {fileID: 0}
    m_Modifications: []
    m_RemovedComponents: []
  m_ParentPrefab: {fileID: 0}
  m_RootGameObject: {fileID: 1000011477906898}
  m_IsPrefabParent: 1
--- !u!1 &1000011477906898
GameObject:
  m_ObjectHideFlags: 0
  m_PrefabParentObject: {fileID: 0}
  m_PrefabInternal: {fileID: 100100000}
  serializedVersion: 5
  m_Component:
  - component: {fileID: 4000010741944192}
  - component: {fileID: 114000013847111806}
  m_Layer: 0
  m_Name: General Goods Store
  m_TagString: Untagged
  m_Icon: {fileID: 0}
  m_NavMeshLayer: 0
  m_StaticEditorFlags: 0
  m_IsActive: 1
--- !u!4 &4000010741944192
Transform:
  m_ObjectHideFlags: 1
  m_PrefabParentObject: {fileID: 0}
  m_PrefabInternal: {fileID: 100100000}
  m_GameObject: {fileID: 1000011477906898}
  m_LocalRotation: {x: 0, y: 0, z: 0, w: 1}
  m_LocalPosition: {x: 0, y: 0, z: 0}
  m_LocalScale: {x: 1, y: 1, z: 1}
  m_Children: []
  m_Father: {fileID: 0}
  m_RootOrder: 0
  m_LocalEulerAnglesHint: {x: 0, y: 0, z: 0}
--- !u!114 &114000013847111806
MonoBehaviour:
  m_ObjectHideFlags: 1
  m_PrefabParentObject: {fileID: 0}
  m_PrefabInternal: {fileID: 100100000}
  m_GameObject: {fileID: 1000011477906898}
  m_Enabled: 1
  m_EditorHideFlags: 0
  m_Script: {fileID: 11500000, guid: 73a4c3199bb4a4d2eaefe9204cf4a73f, type: 3}
  m_Name: 
  m_EditorClassIdentifier: 
  m_eTerrain: 0
  m_displaySprite: {fileID: 21300000, guid: 2c847332b32d24c629aa49489ca760e1, type: 3}
  m_eGridSize: 1
  m_effects:
  - m_eEffect: 0
    m_value: 1
  - m_eEffect: 1
    m_value: 1
  - m_eEffect: 2
    m_value: -10
  - m_eEffect: 5
    m_value: 2
  - m_eEffect: 6
    m_value: 5
  m_displayName: General Goods Store
  m_info: "\u201CBasic store. Boosts Happiness, and causes low Waste\u201D"
  m_requires: 
  m_displayColor: {r: 0.69929606, g: 0.5923443, b: 0.9705882, a: 0}
  m_unlockedBy: {fileID: 0}
