%YAML 1.1
%TAG !u! tag:unity3d.com,2011:
--- !u!1001 &100100000
Prefab:
  m_ObjectHideFlags: 1
  serializedVersion: 2
  m_Modification:
    m_TransformParent: {fileID: 0}
    m_Modifications: []
    m_RemovedComponents: []
  m_ParentPrefab: {fileID: 0}
  m_RootGameObject: {fileID: 1000011709798290}
  m_IsPrefabParent: 1
--- !u!1 &1000011709798290
GameObject:
  m_ObjectHideFlags: 0
  m_PrefabParentObject: {fileID: 0}
  m_PrefabInternal: {fileID: 100100000}
  serializedVersion: 5
  m_Component:
  - component: {fileID: 4000010934732984}
  - component: {fileID: 114000011436802466}
  m_Layer: 0
  m_Name: Oil Rig
  m_TagString: Untagged
  m_Icon: {fileID: 0}
  m_NavMeshLayer: 0
  m_StaticEditorFlags: 0
  m_IsActive: 1
--- !u!4 &4000010934732984
Transform:
  m_ObjectHideFlags: 1
  m_PrefabParentObject: {fileID: 0}
  m_PrefabInternal: {fileID: 100100000}
  m_GameObject: {fileID: 1000011709798290}
  m_LocalRotation: {x: 0, y: 0, z: 0, w: 1}
  m_LocalPosition: {x: 0, y: 0, z: 0}
  m_LocalScale: {x: 1, y: 1, z: 1}
  m_Children: []
  m_Father: {fileID: 0}
  m_RootOrder: 0
  m_LocalEulerAnglesHint: {x: 0, y: 0, z: 0}
--- !u!114 &114000011436802466
MonoBehaviour:
  m_ObjectHideFlags: 1
  m_PrefabParentObject: {fileID: 0}
  m_PrefabInternal: {fileID: 100100000}
  m_GameObject: {fileID: 1000011709798290}
  m_Enabled: 1
  m_EditorHideFlags: 0
  m_Script: {fileID: 11500000, guid: 570c0088a34464ccf839fead2a6df233, type: 3}
  m_Name: 
  m_EditorClassIdentifier: 
  m_eTerrain: 2
  m_displaySprite: {fileID: 21300000, guid: b2c68e2e0a9464789810acf863ccfaf2, type: 3}
  m_eGridSize: 9
  m_effects:
  - m_eEffect: 0
    m_value: 1
  - m_eEffect: 2
    m_value: 120
  - m_eEffect: 4
    m_value: 10
  - m_eEffect: 3
    m_value: 5
  m_displayName: Oil Rig
  m_info: "\u201COcean based fossil fuel Energy plant. Causes Pollution and Biosphere
    Damage\u201D"
  m_requires: 'Requires: School'
  m_displayColor: {r: 0.3252595, g: 0.4640556, b: 0.6911765, a: 0}
  m_unlockedBy: {fileID: 11470138, guid: ec21b8651493046d397cff9e0be396ca, type: 2}
